{
    "extends": "tslint-config-airbnb",
    "rules": {
        "no-empty": true,
        "ter-indent": [
            "error",
            "spaces",
            4
        ],
        "indent": [
            true,
            "spaces",
            4
        ],
        "trailing-comma": false,
        "no-implicit-dependencies": false,
        "no-submodule-imports": false,
        // AirBnb linter
        "brace-style": [
            true,
            "1tbs",
            {
                "allowSingleLine": true
            }
        ], // 16.2
        "ter-func-call-spacing": true // 19.16,
    }
}